id,scenario,propnumber,decision,funder_excluded,first_name,last_name,dob,dependants,phone_std,phone_number,house_number,address1,town,county,postcode,years_at,months_at,residency,address_type_label,address_type,registration_date,mileage,cap_retail,cash_price,vehicle_type,vehicle_condition,cash_deposit,annual_mileage,residual_value,term,product_type,product_short_code
TC001,Motorloan - Min Advance < 2500,33333320001,ACCEPT,Laser,Martin Joseph,Cruickshant,1972-01-01,0,370,6006668,3001,Cromwell Road,Ely,Cambridgeshire,CB6 1AS,10,0,Owner,Current Address,Residential,2018-02-06,100,19000,20000,Car,New,17501,10000,0,24,Personal Loan,PL
TC002,Motorloan - Max Advance > 25000,33333320002,ACCEPT,Laser,Martin Joseph,Cruickshant,1972-01-01,0,370,6006668,3001,Cromwell Road,Ely,Cambridgeshire,CB6 1AS,10,0,Owner,Current Address,Residential,2018-02-06,100,29000,30000,Car,New,4999,10000,0,24,Personal Loan,PL
TC003,Motorloan - Min Term < 24 Months,33333320003,ACCEPT,Laser,Martin Joseph,Cruickshant,1972-01-01,0,370,6006668,3001,Cromwell Road,Ely,Cambridgeshire,CB6 1AS,10,0,Owner,Current Address,Residential,2018-02-06,100,19000,21000,Car,New,3000,10000,0,23,Personal Loan,PL
TC004,Motorloan - Max Term > 60 Months,33333320004,ACCEPT,Laser,Martin Joseph,Cruickshant,1972-01-01,0,370,6006668,3001,Cromwell Road,Ely,Cambridgeshire,CB6 1AS,10,0,Owner,Current Address,Residential,2017-01-06,10000,19000,21000,Car,Used,3000,10000,0,61,Personal Loan,PL
TC005,Motorloan - Max Deposit > 22500,33333320005,ACCEPT,Laser,Martin Joseph,Cruickshant,1972-01-01,0,370,6006668,3001,Cromwell Road,Ely,Cambridgeshire,CB6 1AS,10,0,Owner,Current Address,Residential,2018-02-06,100,29000,30000,Car,New,22501,10000,0,24,Personal Loan,PL
TC006,Motorloan - Min Age > 20,33333320006,ACCEPT,Laser,Martin Joseph,Cruickshant,1997-01-01,0,370,6006668,3001,Cromwell Road,Ely,Cambridgeshire,CB6 1AS,10,0,Owner,Current Address,Residential,2017-01-06,10000,19000,21000,Car,Used,3000,10000,0,60,Personal Loan,PL
TC007,Motorloan - Max Age > 75,33333320007,ACCEPT,Laser,Martin Joseph,Cruickshant,1942-01-01,0,370,6006668,3001,Cromwell Road,Ely,Cambridgeshire,CB6 1AS,10,0,Owner,Current Address,Residential,2018-02-06,100,29000,30000,Car,New,22501,10000,0,24,Personal Loan,PL
TC008,Motorloan - New Car Start Max Mileage > 500 ,33333320008,ACCEPT,Laser,Martin Joseph,Cruickshant,1972-01-01,0,370,6006668,3001,Cromwell Road,Ely,Cambridgeshire,CB6 1AS,10,0,Owner,Current Address,Residential,2018-02-06,501,19000,21000,Car,New,3000,10000,0,24,Personal Loan,PL
TC009,Motorloan - New Car Start Max Age > 1 Month,33333320009,ACCEPT,Laser,Martin Joseph,Cruickshant,1972-01-01,0,370,6006668,3001,Cromwell Road,Ely,Cambridgeshire,CB6 1AS,10,0,Owner,Current Address,Residential,2017-12-06,100,19000,21000,Car,New,3000,10000,0,24,Personal Loan,PL
TC010,Motorloan - New Car End Min Age < 24 Months,33333320010,ACCEPT,Laser,Martin Joseph,Cruickshant,1972-01-01,0,370,6006668,3001,Cromwell Road,Ely,Cambridgeshire,CB6 1AS,10,0,Owner,Current Address,Residential,2018-03-06,100,19000,21000,Car,New,3000,10000,0,24,Personal Loan,PL
TC011,Motorloan - New Car End Max Age < 144 Months,33333320011,ACCEPT,Laser,Martin Joseph,Cruickshant,1972-01-01,0,370,6006668,3001,Cromwell Road,Ely,Cambridgeshire,CB6 1AS,10,0,Owner,Current Address,Residential,2018-01-06,100,19000,21000,Car,New,3000,10000,0,60,Personal Loan,PL
TC012,Motorloan - Used Car Start Max Mileage > 100000,33333320012,ACCEPT,Laser,Martin Joseph,Cruickshant,1972-01-01,0,370,6006668,3001,Cromwell Road,Ely,Cambridgeshire,CB6 1AS,10,0,Owner,Current Address,Residential,2017-01-06,100001,19000,21000,Car,Used,3000,10000,0,24,Personal Loan,PL
TC013,Motorloan - Used Car Start Min Age < 1 Month,33333320013,ACCEPT,Laser,Martin Joseph,Cruickshant,1972-01-01,0,370,6006668,3001,Cromwell Road,Ely,Cambridgeshire,CB6 1AS,10,0,Owner,Current Address,Residential,2018-03-06,10000,19000,21000,Car,Used,3000,10000,0,24,Personal Loan,PL
TC014,Motorloan - Used Car Start Max Age > 120 Months,33333320014,ACCEPT,Laser,Martin Joseph,Cruickshant,1972-01-01,0,370,6006668,3001,Cromwell Road,Ely,Cambridgeshire,CB6 1AS,10,0,Owner,Current Address,Residential,2006-01-01,50000,19000,21000,Car,Used,3000,10000,0,24,Personal Loan,PL
TC015,Motorloan - Used Car End Min Age < 25 Months,33333320015,ACCEPT,Laser,Martin Joseph,Cruickshant,1972-01-01,0,370,6006668,3001,Cromwell Road,Ely,Cambridgeshire,CB6 1AS,10,0,Owner,Current Address,Residential,2018-03-06,10000,19000,21000,Car,Used,3000,10000,0,24,Personal Loan,PL
TC016,Motorloan - Used Car End Max Age > 144 Months,33333320016,ACCEPT,Laser,Martin Joseph,Cruickshant,1972-01-01,0,370,6006668,3001,Cromwell Road,Ely,Cambridgeshire,CB6 1AS,10,0,Owner,Current Address,Residential,2011-01-06,10000,19000,21000,Car,Used,3000,10000,0,60,Personal Loan,PL
TC017,Motorloan - Vehicle Type != Car,33333320017,ACCEPT,Laser,Martin Joseph,Cruickshant,1972-01-01,0,370,6006668,3001,Cromwell Road,Ely,Cambridgeshire,CB6 1AS,10,0,Owner,Current Address,Residential,2017-12-06,10000,19000,21000,Taxi,Used,3000,10000,0,24,Personal Loan,PL
TC018,Motorloan - LTV % > 200,33333320018,ACCEPT,Laser,Martin Joseph,Cruickshant,1972-01-01,0,370,6006668,3001,Cromwell Road,Ely,Cambridgeshire,CB6 1AS,10,0,Owner,Current Address,Residential,2018-02-06,500,20000,41100,Car,New,1000,10000,0,24,Personal Loan,PL
TC019,Topup loan - Min Advance < 1000,33333320019,ACCEPT,Laser,Martin Joseph,Cruickshant,1972-01-01,0,370,6006668,3001,Cromwell Road,Ely,Cambridgeshire,CB6 1AS,10,0,Owner,Current Address,Residential,2018-02-06,100,19000,20000,Car,New,19001,10000,0,24,Personal Loan,PL
TC020,Topup loan - Max Advance > 3000,33333320020,ACCEPT,Laser,Martin Joseph,Cruickshant,1972-01-01,0,370,6006668,3001,Cromwell Road,Ely,Cambridgeshire,CB6 1AS,10,0,Owner,Current Address,Residential,2018-02-06,100,29000,30000,Car,New,26999,10000,0,24,Personal Loan,PL
TC021,Topup loan - Min Term < 12 Months,33333320021,ACCEPT,Laser,Martin Joseph,Cruickshant,1972-01-01,0,370,6006668,3001,Cromwell Road,Ely,Cambridgeshire,CB6 1AS,10,0,Owner,Current Address,Residential,2018-02-06,100,19000,21000,Car,New,3000,10000,0,11,Personal Loan,PL
TC022,Topup loan - Max Term > 60 Months,33333320022,ACCEPT,Laser,Martin Joseph,Cruickshant,1972-01-01,0,370,6006668,3001,Cromwell Road,Ely,Cambridgeshire,CB6 1AS,10,0,Owner,Current Address,Residential,2017-01-06,10000,19000,21000,Car,Used,3000,10000,0,61,Personal Loan,PL
TC023,Topup loan - Min Age > 20,33333320023,ACCEPT,Laser,Martin Joseph,Cruickshant,1997-01-01,0,370,6006668,3001,Cromwell Road,Ely,Cambridgeshire,CB6 1AS,10,0,Owner,Current Address,Residential,2017-01-06,10000,19000,21000,Car,Used,3000,10000,0,60,Personal Loan,PL
TC024,Topup loan - Max Age > 75,33333320024,ACCEPT,Laser,Martin Joseph,Cruickshant,1942-01-01,0,370,6006668,3001,Cromwell Road,Ely,Cambridgeshire,CB6 1AS,10,0,Owner,Current Address,Residential,2018-02-06,100,29000,30000,Car,New,22501,10000,0,24,Personal Loan,PL
TC025,Topup loan - New Car Start Max Mileage > 500 ,33333320025,ACCEPT,Laser,Martin Joseph,Cruickshant,1972-01-01,0,370,6006668,3001,Cromwell Road,Ely,Cambridgeshire,CB6 1AS,10,0,Owner,Current Address,Residential,2018-02-06,501,19000,21000,Car,New,3000,10000,0,24,Personal Loan,PL
TC026,Topup loan - New Car Start Max Age > 1 Month,33333320026,ACCEPT,Laser,Martin Joseph,Cruickshant,1972-01-01,0,370,6006668,3001,Cromwell Road,Ely,Cambridgeshire,CB6 1AS,10,0,Owner,Current Address,Residential,2017-12-06,100,19000,21000,Car,New,3000,10000,0,24,Personal Loan,PL
TC027,Topup loan - New Car End Min Age < 24 Months,33333320027,ACCEPT,Laser,Martin Joseph,Cruickshant,1972-01-01,0,370,6006668,3001,Cromwell Road,Ely,Cambridgeshire,CB6 1AS,10,0,Owner,Current Address,Residential,2018-03-06,100,19000,21000,Car,New,3000,10000,0,24,Personal Loan,PL
TC028,Topup loan - New Car End Max Age < 144 Months,33333320028,ACCEPT,Laser,Martin Joseph,Cruickshant,1972-01-01,0,370,6006668,3001,Cromwell Road,Ely,Cambridgeshire,CB6 1AS,10,0,Owner,Current Address,Residential,2018-01-06,100,19000,21000,Car,New,3000,10000,0,60,Personal Loan,PL
TC029,Topup loan - Used Car Start Max Mileage > 100000,33333320029,ACCEPT,Laser,Martin Joseph,Cruickshant,1972-01-01,0,370,6006668,3001,Cromwell Road,Ely,Cambridgeshire,CB6 1AS,10,0,Owner,Current Address,Residential,2017-01-06,100001,19000,21000,Car,Used,3000,10000,0,24,Personal Loan,PL
TC030,Topup loan - Used Car Start Min Age < 1 Month,33333320030,ACCEPT,Laser,Martin Joseph,Cruickshant,1972-01-01,0,370,6006668,3001,Cromwell Road,Ely,Cambridgeshire,CB6 1AS,10,0,Owner,Current Address,Residential,2018-03-06,10000,19000,21000,Car,Used,3000,10000,0,24,Personal Loan,PL
TC031,Topup loan - Used Car Start Max Age > 120 Months,33333320031,ACCEPT,Laser,Martin Joseph,Cruickshant,1972-01-01,0,370,6006668,3001,Cromwell Road,Ely,Cambridgeshire,CB6 1AS,10,0,Owner,Current Address,Residential,2006-01-01,50000,19000,21000,Car,Used,3000,10000,0,24,Personal Loan,PL
TC032,Topup loan - Used Car End Min Age < 25 Months,33333320032,ACCEPT,Laser,Martin Joseph,Cruickshant,1972-01-01,0,370,6006668,3001,Cromwell Road,Ely,Cambridgeshire,CB6 1AS,10,0,Owner,Current Address,Residential,2018-03-06,10000,19000,21000,Car,Used,3000,10000,0,24,Personal Loan,PL
TC033,Topup loan - Used Car End Max Age > 144 Months,33333320033,ACCEPT,Laser,Martin Joseph,Cruickshant,1972-01-01,0,370,6006668,3001,Cromwell Road,Ely,Cambridgeshire,CB6 1AS,10,0,Owner,Current Address,Residential,2011-01-06,10000,19000,21000,Car,Used,3000,10000,0,60,Personal Loan,PL
TC034,Topup loan - Vehicle Type != Car,33333320034,ACCEPT,Laser,Martin Joseph,Cruickshant,1972-01-01,0,370,6006668,3001,Cromwell Road,Ely,Cambridgeshire,CB6 1AS,10,0,Owner,Current Address,Residential,2017-12-06,10000,19000,21000,Taxi,Used,3000,10000,0,24,Personal Loan,PL
TC035,Topup loan - LTV % > 200,33333320035,ACCEPT,Laser,Martin Joseph,Cruickshant,1972-01-01,0,370,6006668,3001,Cromwell Road,Ely,Cambridgeshire,CB6 1AS,10,0,Owner,Current Address,Residential,2018-02-06,500,20000,41100,Car,New,1000,10000,0,24,Personal Loan,PL
