id,scenario,propnumber,decision,funder_excluded,first_name,last_name,dob,dependants,phone_std,phone_number,house_number,address1,town,county,postcode,years_at,months_at,residency,address_type_label,address_type,registration_date,mileage,cap_retail,cash_price,vehicle_type,vehicle_condition,cash_deposit,annual_mileage,residual_value,term,product_type,product_short_code
TC001,HP - Min Advance < 2500,88888804100,ACCEPT,Private and commercial,Martin Joseph,Cruickshant,1972-01-01,0,370,6006668,3001,Cromwell Road,Ely,Cambridgeshire,CB6 1AS,10,0,Owner,Current Address,Residential,2018-02-06,100,19000,20000,Car,New,17501,10000,0,24,Hire Purchase,HP
TC002,HP - Max Advance > 100000,88888804101,ACCEPT,Private and commercial,Martin Joseph,Cruickshant,1972-01-01,0,370,6006668,3001,Cromwell Road,Ely,Cambridgeshire,CB6 1AS,10,0,Owner,Current Address,Residential,2018-02-06,100,100000,101000,Car,New,999,10000,0,24,Hire Purchase,HP
TC003,HP - Min Term < 24,88888804102,ACCEPT,Private and commercial,Martin Joseph,Cruickshant,1972-01-01,0,370,6006668,3001,Cromwell Road,Ely,Cambridgeshire,CB6 1AS,10,0,Owner,Current Address,Residential,2018-02-06,100,19000,21000,Car,New,3000,10000,0,23,Hire Purchase,HP
TC004,HP - Max Term > 60,88888804103,ACCEPT,Private and commercial,Martin Joseph,Cruickshant,1972-01-01,0,370,6006668,3001,Cromwell Road,Ely,Cambridgeshire,CB6 1AS,10,0,Owner,Current Address,Residential,2018-02-06,100,19000,21000,Car,New,3000,10000,0,61,Hire Purchase,HP
TC005,HP - Max Deposit > 97500,88888804104,ACCEPT,Private and commercial,Martin Joseph,Cruickshant,1972-01-01,0,370,6006668,3001,Cromwell Road,Ely,Cambridgeshire,CB6 1AS,10,0,Owner,Current Address,Residential,2018-02-06,100,100000,101000,Car,New,97501,10000,0,24,Hire Purchase,HP
TC006,HP - Max Age > 65,88888804105,ACCEPT,Private and commercial,IULIAN,LEON,1900-01-01,0,370,6006668,941,Downham Road,Ely,Cambridgeshire,CB6 1AF,10,0,Owner,Current Address,Residential,2018-02-06,100,19000,21000,Car,New,3000,10000,0,24,Hire Purchase,HP
TC007,HP - New Car Start Max Mileage > 500,88888804106,ACCEPT,Private and commercial,Martin Joseph,Cruickshant,1972-01-01,0,370,6006668,3001,Cromwell Road,Ely,Cambridgeshire,CB6 1AS,10,0,Owner,Current Address,Residential,2018-02-06,501,19000,21000,Car,New,3000,10000,0,24,Hire Purchase,HP
TC008,HP - New Car Start Max Age > 1 Month,88888804107,ACCEPT,Private and commercial,Martin Joseph,Cruickshant,1972-01-01,0,370,6006668,3001,Cromwell Road,Ely,Cambridgeshire,CB6 1AS,10,0,Owner,Current Address,Residential,2017-12-31,100,19000,21000,Car,New,3000,10000,0,24,Hire Purchase,HP
TC009,HP - New Car End Min Age < 24 Months,88888804108,ACCEPT,Private and commercial,Martin Joseph,Cruickshant,1972-01-01,0,370,6006668,3001,Cromwell Road,Ely,Cambridgeshire,CB6 1AS,10,0,Owner,Current Address,Residential,2018-03-06,100,19000,21000,Car,New,3000,10000,0,24,Hire Purchase,HP
TC010,HP - New Car End Max Age > 60 Months,88888804109,ACCEPT,Private and commercial,Martin Joseph,Cruickshant,1972-01-01,0,370,6006668,3001,Cromwell Road,Ely,Cambridgeshire,CB6 1AS,10,0,Owner,Current Address,Residential,2018-01-06,100,19000,21000,Car,New,3000,10000,0,60,Hire Purchase,HP
TC011,HP - Used Car Start Min Mileage < 1,88888804110,ACCEPT,Private and commercial,Martin Joseph,Cruickshant,1972-01-01,0,370,6006668,3001,Cromwell Road,Ely,Cambridgeshire,CB6 1AS,10,0,Owner,Current Address,Residential,2017-02-06,0,19000,21000,Car,Used,3000,10000,0,24,Hire Purchase,HP
TC012,HP - Used Car Start Max Mileage > 120000,88888804111,ACCEPT,Private and commercial,Martin Joseph,Cruickshant,1972-01-01,0,370,6006668,3001,Cromwell Road,Ely,Cambridgeshire,CB6 1AS,10,0,Owner,Current Address,Residential,2017-02-06,120001,20000,21000,Car,Used,3000,10000,0,24,Hire Purchase,HP
TC013,HP - Used Car Start Min Age < 1 Month,88888804112,ACCEPT,Private and commercial,Martin Joseph,Cruickshant,1972-01-01,0,370,6006668,3001,Cromwell Road,Ely,Cambridgeshire,CB6 1AS,10,0,Owner,Current Address,Residential,2018-03-06,10000,19000,21000,Car,Used,3000,10000,0,24,Hire Purchase,HP
TC014,HP - Used Car Start Max Age > 132 Months,88888804113,ACCEPT,Private and commercial,Martin Joseph,Cruickshant,1972-01-01,0,370,6006668,3001,Cromwell Road,Ely,Cambridgeshire,CB6 1AS,10,0,Owner,Current Address,Residential,2007-01-06,10000,19000,21000,Car,Used,3000,10000,0,60,Hire Purchase,HP
TC015,HP - Used Car End Min Age < 25 Months,88888804114,ACCEPT,Private and commercial,Martin Joseph,Cruickshant,1972-01-01,0,370,6006668,3001,Cromwell Road,Ely,Cambridgeshire,CB6 1AS,10,0,Owner,Current Address,Residential,2018-02-06,10000,19000,21000,Car,Used,3000,10000,0,24,Hire Purchase,HP
TC016,HP - Used Car End Max Age > 156 Months,88888804115,ACCEPT,Private and commercial,Martin Joseph,Cruickshant,1972-01-01,0,370,6006668,3001,Cromwell Road,Ely,Cambridgeshire,CB6 1AS,10,0,Owner,Current Address,Residential,2010-01-01,10000,1000,21000,Car,Used,3000,10000,0,60,Hire Purchase,HP
TC017,"HP - Vehicle Type != Car, LCV or Taxi",88888804116,ACCEPT,Private and commercial,Martin Joseph,Cruickshant,1972-01-01,0,370,6006668,3001,Cromwell Road,Ely,Cambridgeshire,CB6 1AS,10,0,Owner,Current Address,Residential,2017-02-06,10000,19000,21000,Caravan,Used,3000,10000,0,24,Hire Purchase,HP
TC018,HP - Max LTV > 110%,88888804117,ACCEPT,Private and commercial,Martin Joseph,Cruickshant,1972-01-01,0,370,6006668,3001,Cromwell Road,Ely,Cambridgeshire,CB6 1AS,10,0,Owner,Current Address,Residential,2017-02-06,10000,20000,24000,Car,Used,999,10000,0,24,Hire Purchase,HP
TC019,HP Taxi - Min Advance < 2500,88888804118,ACCEPT,Private and commercial,Martin Joseph,Cruickshant,1972-01-01,0,370,6006668,3001,Cromwell Road,Ely,Cambridgeshire,CB6 1AS,10,0,Owner,Current Address,Residential,2018-02-06,100,19000,20000,Car,New,17501,10000,0,24,Hire Purchase,HP
TC020,HP Taxi - Max Advance > 100000,88888804119,ACCEPT,Private and commercial,Martin Joseph,Cruickshant,1972-01-01,0,370,6006668,3001,Cromwell Road,Ely,Cambridgeshire,CB6 1AS,10,0,Owner,Current Address,Residential,2018-02-06,100,100000,101000,Car,New,999,10000,0,24,Hire Purchase,HP
TC021,HP Taxi - Min Term < 24,88888804120,ACCEPT,Private and commercial,Martin Joseph,Cruickshant,1972-01-01,0,370,6006668,3001,Cromwell Road,Ely,Cambridgeshire,CB6 1AS,10,0,Owner,Current Address,Residential,2018-02-06,100,19000,21000,Car,New,3000,10000,0,23,Hire Purchase,HP
TC022,HP Taxi - Max Term > 60,88888804121,ACCEPT,Private and commercial,Martin Joseph,Cruickshant,1972-01-01,0,370,6006668,3001,Cromwell Road,Ely,Cambridgeshire,CB6 1AS,10,0,Owner,Current Address,Residential,2018-02-06,100,19000,21000,Car,New,3000,10000,0,61,Hire Purchase,HP
TC023,HP Taxi - Max Deposit > 97500,88888804122,ACCEPT,Private and commercial,Martin Joseph,Cruickshant,1972-01-01,0,370,6006668,3001,Cromwell Road,Ely,Cambridgeshire,CB6 1AS,10,0,Owner,Current Address,Residential,2018-02-06,100,100000,101000,Car,New,97501,10000,0,24,Hire Purchase,HP
TC024,HP Taxi - Max Age > 65,88888804123,ACCEPT,Private and commercial,IULIAN,LEON,1900-01-01,0,370,6006668,941,Downham Road,Ely,Cambridgeshire,CB6 1AF,10,0,Owner,Current Address,Residential,2018-02-06,100,19000,21000,Car,New,3000,10000,0,24,Hire Purchase,HP
TC025,HP Taxi - New Car Start Max Mileage > 500,88888804124,ACCEPT,Private and commercial,Martin Joseph,Cruickshant,1972-01-01,0,370,6006668,3001,Cromwell Road,Ely,Cambridgeshire,CB6 1AS,10,0,Owner,Current Address,Residential,2018-02-06,501,19000,21000,Car,New,3000,10000,0,24,Hire Purchase,HP
TC026,HP Taxi - New Car Start Max Age > 1 Month,88888804125,ACCEPT,Private and commercial,Martin Joseph,Cruickshant,1972-01-01,0,370,6006668,3001,Cromwell Road,Ely,Cambridgeshire,CB6 1AS,10,0,Owner,Current Address,Residential,2017-12-31,100,19000,21000,Car,New,3000,10000,0,24,Hire Purchase,HP
TC027,HP Taxi - New Car End Min Age < 24 Months,88888804126,ACCEPT,Private and commercial,Martin Joseph,Cruickshant,1972-01-01,0,370,6006668,3001,Cromwell Road,Ely,Cambridgeshire,CB6 1AS,10,0,Owner,Current Address,Residential,2018-03-06,100,19000,21000,Car,New,3000,10000,0,24,Hire Purchase,HP
TC028,HP Taxi - New Car End Max Age > 60 Months,88888804127,ACCEPT,Private and commercial,Martin Joseph,Cruickshant,1972-01-01,0,370,6006668,3001,Cromwell Road,Ely,Cambridgeshire,CB6 1AS,10,0,Owner,Current Address,Residential,2018-01-06,100,19000,21000,Car,New,3000,10000,0,60,Hire Purchase,HP
TC029,HP Taxi - Used Car Start Min Mileage < 1,88888804128,ACCEPT,Private and commercial,Martin Joseph,Cruickshant,1972-01-01,0,370,6006668,3001,Cromwell Road,Ely,Cambridgeshire,CB6 1AS,10,0,Owner,Current Address,Residential,2017-02-06,0,19000,21000,Car,Used,3000,10000,0,24,Hire Purchase,HP
TC030,HP Taxi - Used Car Start Max Mileage > 100000,88888804129,ACCEPT,Private and commercial,Martin Joseph,Cruickshant,1972-01-01,0,370,6006668,3001,Cromwell Road,Ely,Cambridgeshire,CB6 1AS,10,0,Owner,Current Address,Residential,2017-02-06,100001,20000,21000,Car,Used,3000,10000,0,24,Hire Purchase,HP
TC031,HP Taxi - Used Car Start Min Age < 1 Month,88888804130,ACCEPT,Private and commercial,Martin Joseph,Cruickshant,1972-01-01,0,370,6006668,3001,Cromwell Road,Ely,Cambridgeshire,CB6 1AS,10,0,Owner,Current Address,Residential,2018-03-06,10000,19000,21000,Car,Used,3000,10000,0,24,Hire Purchase,HP
TC032,HP Taxi - Used Car Start Max Age > 120 Months,88888804131,ACCEPT,Private and commercial,Martin Joseph,Cruickshant,1972-01-01,0,370,6006668,3001,Cromwell Road,Ely,Cambridgeshire,CB6 1AS,10,0,Owner,Current Address,Residential,2008-01-01,10000,19000,21000,Car,Used,3000,10000,0,60,Hire Purchase,HP
TC033,HP Taxi - Used Car End Min Age < 25 Months,88888804132,ACCEPT,Private and commercial,Martin Joseph,Cruickshant,1972-01-01,0,370,6006668,3001,Cromwell Road,Ely,Cambridgeshire,CB6 1AS,10,0,Owner,Current Address,Residential,2018-02-06,10000,19000,21000,Car,Used,3000,10000,0,24,Hire Purchase,HP
TC034,HP Taxi - Used Car End Max Age > 156 Months,88888804133,ACCEPT,Private and commercial,Martin Joseph,Cruickshant,1972-01-01,0,370,6006668,3001,Cromwell Road,Ely,Cambridgeshire,CB6 1AS,10,0,Owner,Current Address,Residential,2010-01-01,10000,1000,21000,Car,Used,3000,10000,0,60,Hire Purchase,HP
TC035,"HP Taxi - Vehicle Type != Car, LCV or Taxi",88888804134,ACCEPT,Private and commercial,Martin Joseph,Cruickshant,1972-01-01,0,370,6006668,3001,Cromwell Road,Ely,Cambridgeshire,CB6 1AS,10,0,Owner,Current Address,Residential,2017-02-06,10000,19000,21000,Caravan,Used,3000,10000,0,24,Hire Purchase,HP
TC036,HP Taxi - Max LTV > 110%,88888804135,ACCEPT,Private and commercial,Martin Joseph,Cruickshant,1972-01-01,0,370,6006668,3001,Cromwell Road,Ely,Cambridgeshire,CB6 1AS,10,0,Owner,Current Address,Residential,2017-02-06,10000,20000,24000,Car,Used,999,10000,0,24,Hire Purchase,HP
